0 
15:57:34 [INFO]: epoch 1 
15:57:40 [INFO]: chunk's # 10 margin: 461.267598, kl: 777.361837, log_det: -2.497208 
15:57:45 [INFO]: chunk's # 20 margin: 225.987395, kl: 415.170145, log_det: -2.472221 
15:57:51 [INFO]: chunk's # 30 margin: 162.825919, kl: 303.105319, log_det: -2.500637 
15:57:56 [INFO]: chunk's # 40 margin: 150.786606, kl: 216.635334, log_det: -2.493280 
15:58:02 [INFO]: chunk's # 50 margin: 130.036854, kl: 222.826912, log_det: -2.520149 
15:58:04 [INFO]: model is saved to: /home/brunoguilherme/LME-wordEmbedding/BSG/output/14 
15:58:06 [INFO]: Word vectors are saved to: /home/brunoguilherme/LME-wordEmbedding/BSG/output/14 
