the 2418
and 1356
i 1137
it 1028
is 975
to 970
a 945
of 579
this 567
with 525
for 476
you 430
that 381
in 368
have 316
my 273
very 266
great 263
on 261
as 258
camera 249
but 241
use 234
's 233
are 229
phone 213
can 212
has 201
good 199
all 195
easy 193
player 190
't 187
not 178
quality 171
was 170
so 166
one 159
be 149
at 145
than 141
if 133
an 133
battery 126
like 126
your 121
sound 121
ipod 120
from 118
features 116
well 114
had 111
no 109
or 106
about 104
just 100
more 99
which 99
router 97
its 97
any 96
price 96
've 96
also 95
software 92
up 91
get 87
zen 86
better 86
best 85
me 85
really 85
excellent 83
pictures 83
there 80
out 80
even 76
do 76
other 76
nice 75
works 73
when 72
love 70
by 69
they 68
am 68
small 68
much 68
creative 66
'm 66
would 62
some 62
been 62
music 61
will 61
far 60
problems 59
digital 58
still 57
most 57
diaper 56
using 56
what 56
product 55
now 55
screen 54
because 54
over 53
time 53
does 53
little 52
take 51
used 50
size 50
we 49
mp3 49
work 48
picture 48
2 48
micro 47
too 47
life 46
buy 45
feature 44
thing 44
only 44
overall 44
want 43
first 43
many 43
into 43
could 43
champ 43
everything 42
recommend 42
need 42
happy 41
without 41
play 41
dvd 41
computer 41
fast 40
canon 40
did 39
lot 39
light 39
songs 38
don 37
looking 37
enough 37
got 37
find 37
pretty 37
files 37
looks 37
perfect 37
ever 36
cool 36
say 36
easily 36
while 36
mode 36
speed 35
interface 35
cd 35
people 34
awesome 34
3 34
comes 34
bags 34
manual 33
quite 33
big 33
etc 33
nokia 33
problem 33
after 32
pocket 32
two 32
bought 32
fine 32
new 31
1 31
go 31
pleased 31
radio 30
zoom 30
plus 30
think 30
long 30
their 30
never 29
how 29
then 29
make 29
5 29
design 29
nomad 29
since 29
give 28
photos 28
seems 28
around 28
through 28
unit 27
another 27
way 27
were 27
those 27
money 27
4 27
takes 27
found 27
hard 27
look 27
g3 27
makes 27
few 27
fact 27
controls 27
simple 27
made 27
highly 26
amazing 26
them 26
bit 26
who 26
audio 26
yet 25
right 25
wireless 25
case 25
fm 25
read 25
included 25
see 25
video 25
device 25
less 25
storage 25
players 24
power 24
actually 24
clear 24
set 24
both 24
usb 24
bluetooth 24
able 24
before 23
quick 23
color 23
same 23
compact 23
phones 22
purchase 22
free 22
linksys 22
though 22
hours 22
're 22
having 22
control 22
allows 22
almost 22
setup 21
amazon 21
hand 21
settings 21
touch 21
put 21
windows 21
plays 21
apple 21
system 21
although 21
getting 21
easier 20
however 20
lcd 20
down 20
market 20
card 20
these 20
gb 20
different 20
user 20
intuitive 20
high 20
something 20
decent 20
transfer 20
here 19
itunes 19
firmware 19
worked 19
things 19
extra 19
such 19
being 19
options 19
off 19
point 19
anything 19
range 19
memory 19
once 19
auto 19
ability 19
know 19
pc 19
'll 19
every 18
keep 18
cameras 18
t-mobile 18
diapers 18
old 18
flash 18
apex 18
where 18
pail 18
especially 18
purchased 18
extremely 18
xtra 18
odor 18
impressed 18
definitely 18
fits 18
buttons 18
sleek 17
worth 17
machine 17
service 17
seen 17
regular 17
ease 17
support 17
gives 17
hitachi 17
full 17
working 17
doesn 17
owned 17
stars 17
should 17
own 17
compared 17
mine 16
box 16
years 16
headphones 16
cheap 16
nikon 16
large 16
menus 16
store 16
signal 16
back 16
6600 16
speakerphone 16
reviews 16
baby 16
holds 16
second 15
already 15
blue 15
photo 15
deal 15
smell 15
reception 15
space 15
anyone 15
sure 15
come 15
installation 15
media 15
images 15
low 15
feel 15
wonderful 15
optical 15
refills 15
smaller 15
perfectly 15
plenty 14
bag 14
shots 14
capacity 14
lots 14
wheel 14
setting 14
drive 14
bright 14
going 14
between 14
start 14
file 14
trash 14
wma 14
pics 14
charge 14
beautiful 14
always 14
mini 14
click 14
solid 14
games 14
absolutely 14
button 14
access 14
voice 14
collection 14
special 14
table 14
thought 14
fantastic 13
days 13
10 13
quickly 13
months 13
12 13
running 13
image 13
scroll 13
program 13
song 13
earbuds 13
playing 13
download 13
feels 13
else 13
real 13
useful 13
line 13
removable 13
day 13
comfortable 13
volume 13
smooth 13
display 13
must 12
weeks 12
took 12
colors 12
automatic 12
tiny 12
security 12
'd 12
year 12
white 12
6 12
week 12
genie 12
recorder 12
ok 12
favorite 12
remote 12
resolution 12
cable 12
tried 12
weight 12
option 12
8 12
available 12
expensive 12
understand 12
person 12
our 12
times 12
superior 12
unlike 12
value 12
shoot 11
turn 11
standard 11
loud 11
listen 11
navigate 11
came 11
bad 11
adapter 11
inside 11
0 11
change 11
car 11
offers 11
artist 11
performance 11
review 11
modes 11
playlists 11
month 11
sony 11
sync 11
via 11
huge 11
least 11
tool 11
won 11
probably 11
uses 11
connection 11
others 11
simply 11
itself 11
sd500 11
products 11
anywhere 11
instead 11
norton 11
m12v 11
taking 11
speaker 11
flip 11
friends 11
room 10
install 10
end 10
satisfied 10
wanted 10
needed 10
mediasource 10
despite 10
com 10
balance 10
focus 10
choice 10
data 10
wrt54g 10
open 10
stand 10
again 10
sharp 10
installed 10
number 10
believe 10
macro 10
outstanding 10
built 10
cds 10
run 10
ago 10
noise 10
menu 10
powerful 10
based 10
ones 10
stuff 10
job 10
home 10
above 9
fairly 9
hold 9
movies 9
mp3s 9
given 9
didn 9
convenient 9
tech 9
ringtones 9
14 9
runs 9
away 9
kitchen 9
received 9
40gb 9
dvds 9
several 9
s100 9
bottom 9
why 9
live 9
switch 9
album 9
internet 9
carry 9
sounds 9
normal 9
complaints 9
myself 9
shutter 9
package 9
buying 9
antivirus 9
dirty 9
replaceable 9
experience 9
glad 9
heavy 9
kind 9
clean 9
4300 9
cheaper 9
whole 9
fun 9
lens 9
results 9
adjustment 9
larger 9
opinion 9
mentioned 9
jukebox 9
looked 9
beat 9
tuner 9
record 9
gets 9
batteries 9
eax 9
incredible 9
exposure 9
accessories 8
fit 8
scene 8
xp 8
network 8
top 8
said 8
played 8
programs 8
christmas 8
super 8
call 8
finally 8
impressive 8
cost 8
downloaded 8
along 8
usually 8
lasts 8
explorer 8
may 8
course 8
ripping 8
average 8
nis 8
upgrade 8
black 8
external 8
ive 8
pad 8
amazed 8
firewall 8
either 8
exceptional 8
longer 8
connect 8
taken 8
rather 8
short 8
help 8
dont 8
6610 8
nothing 8
format 8
stylish 8
garbage 8
within 8
depth 8
seemed 8
try 8
making 8
next 8
outlook 8
drop 8
decided 8
connected 8
means 8
hardware 8
perhaps 8
difficult 8
function 8
piece 8
functions 8
40 8
under 7
supplied 7
tell 7
mb 7
operate 7
personal 7
break 7
reasonable 7
went 7
clarity 7
rate 7
seem 7
relatively 7
powershot 7
nicely 7
three 7
slr 7
neat 7
prints 7
possible 7
replace 7
advanced 7
book 7
update 7
transfers 7
positive 7
dropped 7
pro 7
turned 7
speakers 7
equipment 7
online 7
flawlessly 7
shot 7
calendar 7
spare 7
pop 7
wants 7
technology 7
charger 7
breeze 7
model 7
modem 7
important 7
i-pod 7
adjust 7
version 7
strong 7
company 7
learn 7
models 7
20 7
elph 7
house 7
7 7
issue 7
labs 7
computers 7
gotten 7
sturdy 7
cell 7
during 7
remove 7
last 7
liked 7
pros 7
single 7
backlight 7
oh 7
hands 7
front 7
supports 7
applications 7
durable 7
priority 7
haven 7
loved 7
clip 7
class 7
upon 7
web 7
sized 7
soft 7
minutes 7
beats 7
type 6
organizer 6
wrong 6
order 6
combination 6
isn 6
electronic 6
toy 6
metal 6
infrared 6
15 6
basic 6
expected 6
near 6
yes 6
previous 6
night 6
multiple 6
costs 6
slightly 6
true 6
devices 6
variable 6
level 6
turns 6
item 6
goes 6
navigation 6
prefer 6
everywhere 6
designed 6
directly 6
plastic 6
terrific 6
ratio 6
truly 6
ways 6
opening 6
affordable 6
quiet 6
necessary 6
learning 6
considering 6
worry 6
among 6
listening 6
2004 6
consider 6
tv 6
list 6
built-in 6
tags 6
tracks 6
operating 6
none 6
pay 6
might 6
reason 6
mmc 6
major 6
odors 6
check 6
close 6
recently 6
transferring 6
formats 6
guide 6
bonus 6
world 6
often 6
us 6
clips 6
functionality 6
2003 6
3x 6
lock 6
produces 6
move 6
bother 6
comfortably 6
clearly 6
stereo 6
son 6
anyway 6
handle 6
photography 6
packed 6
superb 6
otherwise 6
genre 6
user-friendly 6
load 6
stored 6
attractive 6
notmad 6
4mp 6
calls 6
ipods 6
detail 6
incredibly 6
dell 5
polyphonic 5
100 5
until 5
travel 5
charging 5
jpeg 5
silver 5
rocks 5
side 5
laid 5
knob 5
bits 5
raw 5
strength 5
enjoyed 5
keypad 5
terms 5
wo 5
laptop 5
gave 5
hassle 5
ear 5
plug 5
gig 5
trip 5
nx 5
faster 5
together 5
equalizer 5
recharge 5
advantage 5
trouble 5
os 5
slow 5
array 5
mac 5
compatibility 5
talk 5
cute 5
main 5
ed 5
care 5
lighting 5
mostly 5
11 5
wide 5
effective 5
track 5
show 5
dvd-r 5
configuration 5
lets 5
fully 5
provided 5
seconds 5
fell 5
her 5
area 5
tones 5
ac 5
disc 5
disk 5
portable 5
issues 5
handy 5
shuffle 5
basically 5
scan 5
needs 5
onto 5
documentation 5
bigger 5
instructions 5
everyone 5
expect 5
operation 5
bass 5
due 5
feet 5
recording 5
build 5
cover 5
part 5
initially 5
alot 5
pda 5
upgraded 5
megapixel 5
java 5
35mm 5
higher 5
older 5
cut 5
couple 5
id3 5
per 5
services 5
info 5
similar 5
alarm 5
stick 5
include 5
entire 5
email 5
giving 5
saw 5
11b 5
let 5
doubt 5
carrying 5
slim 5
toddler 5
including 5
mention 5
red 5
handsfree 5
nearly 5
instant 5
accurate 5
nokias 5
five 5
panel 5
headphone 5
construction 5
versatile 5
he 5
shooting 5
details 5
straight 4
enjoy 4
across 4
net 4
figure 4
90 4
word 4
example 4
updated 4
provide 4
playback 4
updates 4
responsive 4
bang 4
hooked 4
re 4
forth 4
speeds 4
wasn 4
midi 4
somewhat 4
recommended 4
reputation 4
lense 4
against 4
tough 4
tons 4
wider 4
loaded 4
search 4
personally 4
ii 4
camcorder 4
corporate 4
photographer 4
30 4
www 4
50 4
eye 4
automatically 4
compression 4
aperture 4
crystal 4
proven 4
handed 4
holding 4
push 4
reviewers 4
keeping 4
guy 4
headset 4
dispose 4
wait 4
buck 4
wherever 4
flexibility 4
sharper 4
today 4
fly 4
following 4
date 4
unbelievably 4
navigating 4
presets 4
complicated 4
besides 4
couldn 4
place 4
require 4
ideal 4
200 4
discovered 4
reading 4
style 4
period 4
connectivity 4
admit 4
finish 4
edges 4
changing 4
totally 4
complained 4
band 4
charges 4
except 4
replaced 4
disappointed 4
competition 4
provides 4
mixed 4
trying 4
videos 4
cables 4
film 4
novice 4
coverage 4
u 4
original 4
follow 4
appearance 4
investment 4
clock 4
symbian 4
flat 4
dream 4
held 4
someone 4
leave 4
listed 4
albums 4
lid 4
finding 4
experienced 4
charm 4
his 4
hit 4
progressive 4
generally 4
arm 4
movie 4
create 4
38 4
reliable 4
pack 4
rip 4
panasonic 4
touchpad 4
shape 4
win 4
surprised 4
added 4
contacts 4
broadband 4
decision 4
forward 4
plunge 4
cloth 4
drag 4
happier 4
practically 4
stable 4
suite 4
friendly 4
degree 4
boasts 4
manipulate 4
customer 4
heard 4
proprietary 4
process 4
stop 4
willing 4
countries 4
doing 4
vcd 4
performs 4
integrated 4
owner 4
playlist 4
ton 4
exactly 4
microphone 4
face 4
unbeatable 4
view 4
operates 4
addition 4
definately 4
variety 4
advertised 4
add 4
desk 4
height 4
helpful 4
ring 4
replacement 4
linux 4
all-in-all 4
routers 4
shipping 4
previously 4
delivers 4
highest 4
4x 4
whether 4
below 4
website 4
saver 3
forget 3
160 3
fabulous 3
specs 3
saved 3
selected 3
met 3
negative 3
bundled 3
99 3
95 3
mp 3
gadgets 3
absolute 3
wallpapers 3
third 3
keeps 3
archos 3
expectations 3
each 3
lasting 3
gprs 3
durability 3
hang 3
backlit 3
enormous 3
created 3
starts 3
000 3
iso 3
researched 3
andor 3
gym 3
matter 3
enables 3
ram 3
mind 3
spent 3
mins 3
latter 3
snow 3
transfering 3
left 3
saying 3
situations 3
rich 3
bar 3
discs 3
00 3
receives 3
save 3
ugly 3
kept 3
qualities 3
5g 3
unequivocally 3
apart 3
gift 3
cooler 3
successfully 3
collet 3
self-timer 3
raised 3
wrap 3
amateur 3
form 3
high-quality 3
bargain 3
helps 3
jacket 3
serious 3
pouch 3
gigs 3
rechargable 3
slower 3
regret 3
kbps 3
wood 3
wonderfully 3
scratched 3
equipped 3
visual 3
easiest 3
cap 3
fortunately 3
actual 3
max 3
produce 3
natural 3
maybe 3
tall 3
thumb 3
window 3
half 3
name 3
seriously 3
correct 3
shows 3
panorama 3
recharges 3
star 3
impossible 3
europe 3
13 3
rugged 3
16 3
transferred 3
future 3
cards 3
browser 3
aside 3
printed 3
converter 3
professional 3
suggest 3
leather 3
worried 3
ad-2600 3
points 3
sites 3
colours 3
notice 3
megapixels 3
musicmatch 3
60 3
hardly 3
500 3
offered 3
cellphone 3
charged 3
outdoor 3
adjustments 3
digicams 3
dark 3
plusses 3
graphics 3
benefit 3
anti-spam 3
satisfactory 3
reasons 3
pioneer 3
throw 3
mean 3
backup 3
quietly 3
zennx 3
napster 3
default 3
deep 3
general 3
fill 3
drivers 3
ringtone 3
curve 3
dollar 3
fence 3
past 3
hasn 3
amount 3
flaws 3
site 3
known 3
helped 3
hour 3
boy 3
wav 3
sense 3
surpasses 3
photoshop 3
soon 3
suprisingly 3
complain 3
customization 3
print 3
mms 3
imagine 3
decently 3
done 3
flimsy 3
focusing 3
contrary 3
zx 3
reach 3
70 3
notch 3
microsoft 3
factor 3
hip 3
waterproof 3
replacable 3
him 3
hype 3
sold 3
sensitive 3
sweet 3
belt 3
scented 3
empty 3
modern 3
sending 3
cinch 3
kodak 3
ready 3
paying 3
painless 3
moving 3
recent 3
lower 3
priced 3
edge 3
gsm 3
tft 3
questions 3
alternative 3
source 3
512mb 3
continue 3
popular 3
palm 3
server 3
300 3
step 3
plugged 3
department 3
overly 3
users 3
required 3
green 3
coolpix 3
g2 3
wave 3
rrw 3
business 3
consistently 3
body 3
chose 3
casing 3
thats 3
manage 3
rechargeable 3
readable 3
seamless 3
sort 3
subscription 3
account 3
drops 3
didnt 3
plate 3
tag 3
fortunate 3
numerous 3
pair 3
profile 3
road 3
allow 3
produced 3
choose 3
beginner 3
category 3
twice 3
buds 3
latest 3
early 3
retail 3
south 3
metering 3
firewire 3
flashes 3
purchasing 3
hp 3
unless 3
editing 3
winner 3
wise 3
tunes 3
edition 3
pants 3
jog 3
optional 3
pic 3
improved 3
choices 3
reliability 3
manually 3
phenomenal 3
thus 3
surprisingly 3
lightweight 3
bucks 3
capture 3
beast 3
capabilities 3
usage 3
smart 3
loss 3
become 3
functional 3
literally 3
ripped 3
high-end 3
hot 3
compatible 3
housing 3
noticed 3
biggest 3
naturally 3
brand 3
places 3
wish 3
cake 3
lasted 3
boot 3
samsung 3
starting 3
four 2
sleep 2
hate 2
contained 2
containing 2
lack 2
digic 2
tank 2
osx 2
open-source 2
convenience 2
kentucky 2
freehand 2
mpeg 2
preferences 2
orchestra 2
disappoint 2
hundreds 2
protection 2
daughter 2
items 2
credit 2
browsing 2
advantages 2
powerup 2
visible 2
stern 2
total 2
98 2
modify 2
organized 2
hog 2
returning 2
answer 2
ordinary 2
512 2
appreciate 2
t610 2
imo 2
writing 2
400 2
workhorse 2
yourself 2
reasonably 2
detroit 2
stations 2
logs 2
series 2
content 2
sliding 2
turning 2
inexpensive 2
ups 2
flawless 2
leaps 2
hd 2
tasks 2
primary 2
hook 2
floors 2
audigy 2
attach 2
happily 2
positively 2
composer 2
messing 2
target 2
frankly 2
tells 2
releases 2
zealand 2
competitors 2
overpriced 2
pops 2
layout 2
touched 2
integrate 2
folder 2
predecessor 2
dj 2
watch 2
foremost 2
covering 2
mbps 2
isync 2
5000 2
fail 2
subject 2
rings 2
appealing 2
finger 2
360 2
loose 2
weak 2
protect 2
accident 2
country 2
vibration 2
asked 2
jack 2
900 2
speak 2
chrome 2
flexible 2
deeper 2
spin 2
exception 2
finder 2
svcds 2
ir 2
im 2
march 2
demands 2
fuss 2
tops 2
delight 2
uploading 2
greatest 2
800 2
thumbs 2
africa 2
background 2
54 2
offer 2
printer 2
library 2
confusing 2
purple 2
marketing 2
losing 2
dollars 2
plunging 2
treble 2
wasting 2
amazingly 2
sunlight 2
hear 2
dead 2
back-up 2
nicest 2
delete 2
annoying 2
ericsson 2
roll 2
normally 2
backward 2
wanting 2
switched 2
integration 2
certainly 2
absolutly 2
text 2
downloading 2
icing 2
navigable 2
blast 2
rough 2
adds 2
current 2
international 2
falling 2
slick 2
water 2
appears 2
brilliant 2
pixel 2
bog 2
rarely 2
connector 2
outputs 2
acceptable 2
whatever 2
currency 2
wallet 2
minimum 2
viewfinder 2
20gb 2
regularly 2
dedicated 2
performer 2
stream 2
audiophile 2
december 2
allowed 2
counting 2
requirements 2
watching 2
fourth 2
nyc 2
autofocus 2
map 2
information 2
spot 2
remember 2
whenever 2
sw 2
sd 2
mainly 2
stability 2
shake 2
gracenotes 2
group 2
interesting 2
inferior 2
killer 2
records 2
rendering 2
possibilities 2
realistic 2
csr 2
wirelessly 2
revised 2
yeah 2
snapshots 2
ex 2
morning 2
eq 2
es 2
intended 2
stitch 2
3rd 2
factory 2
state 2
hefty 2
recharger 2
saving 2
drove 2
checked 2
silent 2
indicate 2
friend 2
clients 2
wap 2
red-eyes 2
offering 2
strengths 2
supporting 2
knew 2
paid 2
pages 2
steady 2
sunset 2
shop 2
walking 2
shoe 2
correctly 2
jazz 2
lighter 2
versions 2
yield 2
station 2
bounds 2
connections 2
25 2
pixels 2
called 2
fix 2
endless 2
jeans 2
combines 2
stretch 2
encryption 2
dependable 2
blessing 2
situation 2
coolest 2
eventually 2
multifunction 2
doctor 2
wpa 2
booster 2
lysol 2
neon 2
woodworking 2
captured 2
improvement 2
interested 2
grip 2
aspects 2
spectacular 2
gonna 2
glitches 2
outlet 2
subscribe 2
output 2
organizing 2
excelent 2
unmatched 2
belkin 2
porter 2
accessing 2
2600 2
meets 2
exciting 2
industry 2
generated 2
thousands 2
tremendous 2
pockets 2
upstairs 2
log 2
assumed 2
brain 2
survived 2
organize 2
detailed 2
gone 2
taste 2
certain 2
describe 2
genres 2
antenna 2
idiot 2
2000 2
poop 2
loading 2
wifi 2
configure 2
30gb 2
th 2
difference 2
quicker 2
fringing 2
pass 2
further 2
wmas 2
learned 2
3hp 2
5gb 2
component 2
colored 2
whine 2
pick 2
action 2
luck 2
deals 2
add-on 2
ringing 2
comparing 2
gorgeous 2
kick 2
knows 2
tested 2
antispam 2
installing 2
purchases 2
compare 2
share 2
eazy 2
states 2
protective 2
numbers 2
earpiece 2
awkward 2
acts 2
seperately 2
okay 2
advice 2
panoramic 2
coming 2
backyard 2
bugs 2
anytime 2
uninstall 2
rounded 2
paper 2
26 2
sale 2
parts 2
alter 2
wouldn 2
return 2
unusable 2
casio 2
stated 2
6620 2
capability 2
idea 2
extended 2
research 2
downloads 2
ass 2
offsets 2
hobbiest 2
ask 2
terribly 2
assign 2
patience 2
miss 2
maple 2
razor 2
guess 2
sonyericsson 2
rates 2
hundred 2
behind 2
park 2
convinced 2
supposed 2
syncing 2
cumbersome 2
mountain 2
macs 2
sets 2
plan 2
joystick 2
blend 2
fond 2
carefully 2
wet11 2
double 2
stn 2
art 2
changeable 2
expert 2
currently 2
myriad 2
missing 2
mega 2
focused 2
skips 2
ps 2
mind-blowing 2
wep 2
moment 2
prices 2
35mb 2
budget 2
tweaking 2
encountered 2
reads 2
calender 2
ultracompact 2
leaving 2
sounding 2
shirt 2
shorter 2
9 2
literature 2
gallery 2
yesterday 2
viewing 2
robust 2
anybody 2
darn 2
ergonomic 2
regrets 2
parents 2
snap 2
australia 2
lacking 2
unlimited 2
game 2
truely 2
loads 2
trendy 2
sprint 2
amatuer 2
minimal 2
nose 2
processing 2
preset 2
messaging 2
1gb 2
primarily 2
spam 2
handles 2
custom 2
downloadable 2
suit 2
properly 2
newer 2
ui 2
continuously 2
sennheiser 2
start-up 2
beatiful 2
earphones 2
2002 2
train 2
lying 2
particularly 2
glows 2
concerned 2
wizard 2
send 2
sent 2
outside 2
continues 2
adequate 2
fewer 2
optics 2
extras 2
crop 2
jump 2
traveling 2
picked 2
dock 2
consideration 2
safer 2
34 2
motor 2
attribute 2
cram 2
chip 2
comparison 2
visibility 2
tad 2
mpeg1 2
mpeg2 2
slip 2
delay 2
640x480 2
attachment 2
stock 2
sleeker 2
highs 2
npr 2
honestly 2
areas 2
wake-up 2
bunch 2
covered 2
practice 2
preclude 2
weather 2
unbelievable 2
dialing 2
exceeded 2
res 2
completely 2
surely 2
keen 2
finest 2
blows 2
grow 2
doesnt 2
convert 2
shell 2
adaptor 2
bed 2
loves 2
snazzy 2
steep 2
bet 2
viewer 2
senses 2
selection 2
please 2
indoor 2
bring 2
fear 2
downstairs 2
smallest 2
local 2
earbud 2
likely 2
she 2
knowing 2
cuts 2
creating 2
written 2
routing 2
horrible 2
joy 2
limits 2
wall 2
packaging 2
news 2
slowly 2
treat 2
handset 2
present 2
vanilla 2
harder 2
stunning 2
ultra 2
insanely 2
vs 2
dual 2
indistinguishable 2
'zen 2
party 2
pdf 2
frequently 2
center 2
position 2
usual 2
sources 2
rooms 2
tone 2
rest 2
combine 2
dlink 2
identical 2
motorola 2
mhz 2
audible 2
accessible 2
classical 2
smoothly 2
daylight 2
thank 2
e-mail 2
economical 2
anti-virus 2
headaches 2
blurry 2
limitations 2
rock 2
rare 2
introduced 2
warranty 2
winamp 2
zooms 2
brands 2
utility 2
apps 2
photostitch 2
wife 2
covers 2
pim 2
penny 2
pie 2
pix 2
conclusion 2
junk 2
repeat 2
stay 2
netgear 2
factors 2
pricey 2
secondly 1
systematic 1
saves 1
dynamic 1
nursery 1
hanging 1
up-side 1
replacements 1
buddy 1
silverfish 1
swap 1
whatsoever 1
aux 1
sorry 1
swivel 1
risk 1
hdtv 1
combos 1
hitch 1
vast 1
cnet 1
school 1
customizable 1
cause 1
upload 1
indefinitely 1
flashy 1
succession 1
locked-in 1
expandability 1
consistent 1
fairness 1
bacon 1
post-processing 1
batch 1
rigorous 1
machines 1
shining 1
established 1
sheer 1
ail 1
fingers 1
bonuses 1
54mbps 1
conduct 1
supplier 1
contributes 1
cincinnati 1
told 1
meg 1
usb2 1
very-well 1
disposable 1
china 1
possibility 1
textured 1
previews 1
films 1
remotely 1
substance 1
tapes 1
changed 1
settled 1
ventured 1
hunch 1
must-have 1
dummy-proof 1
dc240 1
brought 1
wars 1
glance 1
hard-drive 1
achieve 1
symphony 1
distortions 1
bu 1
1000 1
abra 1
relax 1
brings 1
yahoo 1
port 1
hole 1
whole-heartedly 1
s300 1
md 1
1993 1
synopsis 1
1000s 1
unfortunately 1
spec 1
mortar 1
elegantly 1
listings 1
indicated 1
household 1
4500 1
robustness 1
simian 1
ie 1
hop 1
rewind 1
12in 1
beach 1
gaming 1
lan 1
blanks 1
shut-downs 1
beauty 1
mess 1
manuals 1
imaginable 1
ball 1
diagram 1
geeks 1
suavest 1
salsa 1
anymore 1
occasions 1
cigarettes 1
algorithms 1
ultimate 1
ethernet 1
wind 1
snugly 1
chunk 1
high-res 1
cousin 1
pac-man 1
viedo-files 1
exchange 1
manageable 1
35-mm 1
405 1
versus 1
grand 1
slick-looking 1
muvo2 1
rental 1
sennheisers 1
lithium 1
indeed 1
brightness 1
acoustic 1
lithium-ion 1
interruption 1
solution 1
glinting 1
directory 1
chubby 1
aids 1
first-class 1
misfortune 1
rw 1
driving 1
rs 1
ipa 1
god 1
ha 1
timers 1
3m-4m 1
reader 1
surprise 1
touchpaper 1
pillow 1
auto-correction 1
assured 1
streamline 1
240 1
universally 1
calculator 1
point-and-shoot 1
bars 1
mankind 1
convent 1
work-around 1
messages 1
silicon 1
att 1
purpose 1
-not 1
hearing 1
shopped 1
featured 1
ripples 1
fahrenheit 1
semi-pro 1
ten 1
cd-r 1
10m 1
mcgee 1
wmp10 1
blackberry 1
compromise 1
fumble 1
tom 1
critter 1
nitrus 1
202 1
dhaka 1
mechanism 1
fragility 1
serve 1
japanese 1
modetimer 1
bang-for-the-buck 1
predictable 1
traffic411 1
begins 1
distance 1
erickson 1
immaterial 1
seated 1
ebay 1
shower 1
louder 1
speaking 1
powers 1
bridge 1
wide-angle 1
apple-approved 1
pretend 1
well- 1
purchaser 1
ergonomics 1
4x6 1
seek 1
quieter 1
aptly 1
subjects 1
instructs 1
defiantly 1
rides 1
clunky 1
circles 1
thrilled 1
limitless 1
dial 1
maccabees 1
optimized 1
mouth 1
coveron 1
claims 1
16bit 1
cellular 1
801 1
glow 1
medical 1
flinch 1
freeway 1
scotch 1
marvel 1
meetings 1
random 1
brilliance 1
rife 1
tempted 1
remedied 1
hi-tech 1
folded 1
retraction 1
on-screen 1
rice 1
extenders 1
stores 1
tiles 1
colorful 1
dd 1
smut 1
blinking 1
store-brand 1
competitive 1
vividly 1
tips 1
about- 1
white-correction 1
54g 1
reliant 1
excel 1
large-capacity 1
contrast 1
carrier 1
release 1
ears 1
gallon 1
above-mentioned 1
captures 1
diminutive 1
branding 1
peripheral 1
testing 1
strainers 1
outgoing 1
well-established 1
resist 1
depends 1
result 1
reviewer 1
interruptions 1
03 1
incorrectly 1
04 1
grandmother 1
opened 1
score 1
simplest 1
s70 1
sorts 1
privilege 1
rundown 1
wears 1
extend 1
nature 1
confusion 1
lover 1
rivers 1
multimedia 1
carbon 1
picking 1
reported 1
usedesign 1
layered 1
brag 1
receiver 1
exceeds 1
studio 1
prospect 1
skill 1
appeared 1
improving 1
vaio 1
2nd 1
offerings 1
inquisitive 1
10-11 1
gleaming 1
master 1
refill 1
trust 1
md-e828lp 1
ether 1
conference 1
bathroom 1
cardboard 1
puts 1
intrusion 1
beer 1
trigger 1
plopping 1
threw 1
dots 1
families 1
eastern 1
accidently 1
options- 1
love-hate 1
fast-forward 1
locations 1
kids 1
multi-format 1
catch 1
pitch-corrected 1
sounded 1
publicly 1
aim 1
formatting 1
aid 1
price-wise 1
stink 1
cons 1
set-up 1
iq 1
ip 1
cant 1
i-75 1
exterior 1
nomadzen 1
id 1
disappear 1
magnificent 1
damaged 1
thingy 1
emergency 1
jame 1
syncs 1
linked 1
drawback 1
inventory 1
auto-focus 1
bells 1
evolve 1
effortlessly 1
differing 1
photographers 1
documents 1
60gb 1
animations 1
groundbreaking 1
positives 1
normalization 1
cycle 1
butter 1
dado 1
knockoff 1
kde-bluetooth 1
hopping 1
gaps 1
humble 1
whichever 1
savings 1
quest 1
hearts 1
yours 1
battery-powered 1
opinions 1
in-program 1
bandwidth 1
li-ion 1
plug-in 1
followed 1
rotates 1
note 1
nudge 1
family 1
infinitely 1
youngsters 1
anted 1
newest 1
hat 1
shoulder 1
costgb 1
breaks 1
65536 1
possibly 1
distortion 1
desire 1
trivia 1
texts 1
55 1
57 1
hunt 1
5- 1
pavement 1
broadcaster 1
giff 1
overrated 1
hung 1
mosques 1
begin 1
elderly 1
born 1
escape 1
apparent 1
specific 1
32mb 1
txt 1
dense 1
memos 1
comments 1
asking 1
landscape 1
treadmill 1
steps 1
displayed 1
cord 1
pose 1
musicaudio 1
bolt 1
post 1
toyjunk 1
limitation 1
lock-ups 1
cadre 1
misleading 1
statements 1
preliminary 1
beneficial 1
respectable 1
overkill 1
shoots 1
nuisance 1
yin 1
constantly 1
stuck 1
noting 1
resulted 1
on-line 1
lowest 1
head 1
medium 1
manufacturers 1
birthday 1
removes 1
reset 1
preview 1
surprising 1
streaming 1
poping 1
attached 1
ruined 1
stand-up 1
p200 1
mighty 1
temper 1
150 1
pimples 1
classic 1
mirror 1
aperture-time 1
pop-ups 1
exist 1
promised 1
zens 1
constructed 1
encrypt 1
whereas 1
reality 1
test 1
tie 1
smelled 1
realize 1
allowing 1
wireless-g 1
delivered 1
felt 1
uniformly 1
transported 1
invested 1
redirected 1
'l 1
died 1
jones 1
packets 1
well-designed 1
stacks 1
newbie 1
dance 1
particular 1
activated 1
themes 1
manager 1
disappears 1
skiing 1
chair 1
seller 1
flubbed 1
zone 1
father 1
environment 1
compensate 1
permanently 1
splurge 1
discovering 1
receivers 1
circumstances 1
southwest 1
seemingly 1
3330 1
stays 1
memorystorage 1
non-slr 1
dim 1
solves 1
brother 1
two-times 1
standards 1
noiseless 1
defaults 1
round 1
prevent 1
talked 1
contrasting 1
dealing 1
sign 1
slowed 1
bose 1
1100s 1
purchasers 1
appear 1
assistance 1
talkers 1
dropping 1
havoc 1
suspect 1
appeal 1
boost 1
bandwagon 1
pencilings 1
alkaline 1
hairs 1
groups 1
address 1
alone 1
general-to 1
rebates 1
standout 1
accomplishes 1
noticeable 1
ot 1
cream 1
trial 1
high-speed 1
conveniently 1
history 1
pause 1
adjustable 1
hiking 1
pentium 1
3800 1
brighten 1
logically 1
1st 1
everybody 1
crammed 1
vivid 1
prove 1
hopefully 1
intense 1
opposed 1
aries 1
microfiber 1
thru 1
selects 1
ports 1
staying 1
symantec 1
clicking 1
ooh 1
fingered 1
cases 1
avaunt 1
effort 1
originally 1
believer 1
flagship 1
slightest 1
usability 1
mirrors 1
confused 1
14x 1
drawer 1
slows 1
chic 1
menisci 1
1ghz 1
organizes 1
till 1
vital 1
'98 1
parental 1
crashes 1
accessory 1
multipurpose 1
bottom-line 1
man 1
close-up 1
surfing 1
mirror-like 1
gremlins 1
comfort 1
shield 1
feb 1
constituents 1
writers 1
tendency 1
jig 1
kicking 1
buns 1
platform 1
gem 1
policy 1
ours 1
decades 1
instantly 1
toys 1
non 1
recreate 1
emailed 1
views 1
moms 1
sdon 1
introduce 1
technician 1
halo 1
workload 1
teri 1
corners 1
sensibilities 1
locked 1
multi-slide 1
iguassu 1
adore 1
concerts 1
em 1
fired 1
challenges 1
owing 1
ft 1
happen 1
adequately 1
accomplish 1
container 1
befcmu10 1
collisions 1
click-able 1
formula 1
squarer 1
receiving 1
maneuver 1
lag 1
monster 1
8290 1
cart 1
relatively-intuitive 1
lugging 1
i-tunes 1
cough 1
remainder 1
inevitable 1
milestones 1
incredibility 1
selections 1
programming 1
catalog 1
hinged 1
plane 1
waited 1
blind 1
initial 1
one-click 1
guessing 1
sought-after 1
mx-400 1
clumsy 1
tomorrow 1
rented 1
city 1
necessarily 1
sleeve 1
structured 1
1g 1
cost-effective 1
nikon's 1
exploring 1
eyes 1
fraction 1
continuous 1
cmdr 1
broadcast 1
released 1
firewire400 1
butt 1
eliminated 1
quantity 1
5717 1
18 1
summary 1
so-so 1
magnesium 1
usbfirewire 1
1- 1
rippingtransfering 1
gravitated 1
lick 1
systemworks 1
n-gage 1
mountains 1
5-per-month 1
street 1
ant 1
regards 1
venerable 1
fashionable 1
mind-numbingly 1
320kbs 1
upgrading 1
shocked 1
potential 1
objective 1
towers 1
deodorizers 1
altered 1
falls 1
importantly 1
inserted 1
expertise 1
forever 1
automatically-retrieved 1
considered 1
ear-peice 1
filing 1
wires 1
reboot 1
teamed 1
corner 1
tend 1
3650 1
crashing 1
slot 1
office 1
title 1
daily 1
slow-syncro 1
2mp 1
f-stop 1
utilities 1
windows-based 1
8-10 1
whizzing 1
n6600 1
conjunction 1
gen 1
12-day 1
regarding 1
seldom 1
topnotch 1
stupid 1
steve's 1
worrying 1
vision 1
reveals 1
concert 1
4155 1
college 1
anyways 1
ct-4 1
surfaces 1
fails 1
detect 1
er 1
registering 1
jumped 1
glaze 1
491 1
sable 1
hga7t 1
import 1
jv 1
comforum6 1
jobs 1
vertical 1
comp 1
real-life 1
fiddling 1
rapidly 1
crisper 1
mono 1
region 1
cd-rs 1
concentrate 1
disappointment 1
fans 1
wheels 1
stretches 1
madness 1
overview 1
helpful- 1
moreover 1
fathomed 1
mp-3 1
boat 1
touch-wheel 1
tuning 1
capable 1
keys 1
informed 1
likewise 1
video-playback 1
direction 1
redeye 1
niftiest 1
spills 1
wake 1
160kbps 1
laying 1
hidden 1
shaft 1
stacked 1
4-5 1
operational 1
non-issue 1
cash 1
intrusions 1
associates 1
pitch 1
trade-up 1
passes 1
telephone 1
according 1
middle 1
pressing 1
trimming 1
shines 1
par 1
locking 1
configurable 1
98db 1
consumer 1
html 1
events 1
visually 1
closest 1
brisk 1
nest 1
third-party 1
bulletproof 1
wired 1
delicate 1
drain 1
theater 1
floor 1
ringer 1
solve 1
auto-mode 1
components 1
uncomplicated 1
valuable 1
ounces 1
halfway 1
blow 1
application 1
thinking 1
tech-savvy 1
invasive 1
stopwatch 1
extensive 1
heavier 1
bargains 1
blowout 1
handling 1
calendars 1
6- 1
quickness 1
traffic 1
preference 1
meaning 1
fortune 1
superfluous 1
reducer 1
serves 1
superiority 1
retailers 1
resolved 1
substandard 1
niceties 1
auditorium 1
twelve 1
kayaking 1
large-diameter 1
a60 1
vgazoomnight 1
65k 1
specified 1
zoomed 1
mood 1
memories 1
recorded 1
photo-quality 1
nook 1
critical 1
provider 1
moderate 1
mastered 1
turkey 1
database 1
manufactured 1
nails 1
polite 1
broken 1
photo-enthusiast 1
assemble 1
drawn 1
purse 1
lifer 1
om 1
laminate 1
workhorses 1
dd5 1
knits 1
op 1
checkup 1
teddy 1
route 1
burning 1
coupon 1
child 1
snooze 1
web-site 1
wade 1
lastly 1
springs 1
stare 1
aren 1
strictly 1
hard-walled 1
styling 1
ponce 1
detectable 1
lou 1
near-cd 1
complete 1
drains 1
regard 1
sophisticated 1
beginners 1
indicators 1
illuminates 1
technologies 1
copied 1
explaining 1
2-megapixel 1
hooray 1
vice 1
appliance 1
back-lit 1
conqueror 1
8-track 1
600 1
af 1
ak 1
1200 1
scanned 1
walks 1
blues 1
rubber 1
field 1
gaining 1
regardless 1
separate 1
students 1
cordless 1
fasten 1
complications 1
suburbs 1
laptops 1
calorimetry 1
unload 1
cored 1
alright 1
demo 1
ii-powered 1
semantic 1
maximum 1
ceramic 1
thoughtful 1
sim 1
talks 1
children 1
rd 1
apartment 1
icons 1
macros-results 1
wmp 1
extraneous 1
removal 1
1-800 1
enjoying 1
bevy 1
worse 1
removing 1
fan 1
minded 1
vacationing 1
condition 1
elated 1
washes 1
accompanying 1
deficient 1
unattainable 1
filling 1
t720i 1
unable 1
192 1
zero 1
titles 1
perspective 1
link 1
3660 1
juice 1
hesitation 1
opted 1
sun 1
section 1
brief 1
faltered 1
undecided 1
public 1
postage-stamp 1
winxp 1
relaxation 1
directions 1
arena 1
focus-lock 1
increments 1
ahead 1
houses 1
inspired 1
i-70 1
prior 1
sealing 1
encountering 1
800mhz 1
thankfully 1
polymer 1
mastering 1
screens 1
vip 1
pulls 1
micro-adjustable 1
select 1
easy-to-use 1
amaze 1
distinct 1
contains 1
acrobat 1
amenities 1
tie-ins 1
wipes 1
minor 1
610 1
door 1
pads 1
incentive 1
staggering 1
ital 1
dammit 1
mini-disc 1
broke 1
varying 1
mounted 1
offload 1
satisfactorily 1
science 1
dew 1
installs 1
remain 1
paragraph 1
obtain 1
broad 1
def 1
lubricant 1
needing 1
prompt 1
f8 1
pushed 1
protects 1
airplane 1
concealed 1
firmly 1
cocking 1
plans 1
american 1
everyday 1
glowing 1
speeding 1
onoff 1
suppose 1
blue-lit 1
tries 1
disable 1
conveniences 1
horizontal 1
response 1
quick-start 1
shortcomings 1
coax 1
unreservedly 1
quoted 1
to-date 1
renewing 1
precise 1
roommates 1
reinforced 1
reproduced 1
leigh 1
stains 1
proverbial 1
isnt 1
filters 1
booted 1
hell 1
497 1
24 1
messed 1
28 1
blurring 1
recollection 1
systems 1
nifty 1
2- 1
yo 1
you've 1
finite 1
wash 1
durable-seeming 1
2x 1
freebies 1
uploads 1
die 1
malaya 1
notes 1
2k 1
weighs 1
knowledgeable 1
generation 1
howard 1
lovers 1
solved 1
navigational 1
mapsdirections 1
acdc 1
extraordinary 1
base 1
imaging 1
beginning 1
elp2 1
owners 1
well-made 1
expecting 1
chalked 1
shareware 1
solidly 1
feed 1
cads 1
jogs 1
comfy 1
revolution 1
effortless 1
says 1
paint 1
leading 1
smoother 1
180 1
obtainable 1
56k 1
relationship 1
gigabytes 1
minutest 1
excels 1
semi-serious 1
luckily 1
kilobytes 1
versatility 1
500-cd 1
anticipate 1
instruction 1
freud 1
determined 1
seamlessly 1
headache 1
enclosed 1
categorizes 1
uncomfortable 1
categorized 1
cleaned 1
depending 1
'world 1
exceedingly 1
knobs 1
warnings 1
customize 1
quote 1
7- 1
affordability 1
significant 1
free-after-rebates 1
achievement 1
unavailable 1
muscle 1
sometimes 1
traditional 1
hips 1
humid 1
stunned 1
660 1
well-placed 1
sprayed 1
businesses 1
top-notch 1
standhard 1
unwrapped 1
backtracking 1
indicator 1
pop3smtp 1
northern 1
endlessly 1
sharing 1
offensive 1
11-18m 1
cassette 1
halloween 1
all-powerful 1
ipod's 1
grocery 1
upside 1
emails 1
synchronization 1
batter 1
closely 1
banner 1
5mp 1
blocker 1
common 1
doubles 1
bulky 1
cramp 1
retracts 1
achieved 1
startup 1
scenes 1
individual 1
sec 1
overboard 1
866 1
'potent 1
wow 1
burner 1
powerhouse 1
oz 1
woo 1
plywood 1
65000 1
burned 1
internet-labeled 1
responses 1
excessive 1
intimidated 1
outdoors 1
hands-free 1
untouched 1
spray 1
disturbance 1
selectively 1
feeling 1
fiance 1
solely 1
barely 1
improves 1
e-mailing 1
price- 1
community 1
newborn 1
upgrades 1
townhouse 1
desktop 1
pr 1
ensures 1
enhancements 1
dovetail 1
stamp 1
overlook 1
verse 1
50mbs 1
rivals 1
faithfully 1
25-50 1
brick 1
pi 1
double-speed 1
compromises 1
voila 1
fire 1
torque 1
39 1
specifically 1
incoming 1
presented 1
replaces 1
talking 1
signal-to-noise 1
tip 1
grainy 1
technical 1
match 1
pound 1
reps 1
hoping 1
neededavailable 1
overlooked 1
ob 1
disappointing 1
rio 1
macroinfinity 1
funny 1
lengthy 1
ad-1200 1
onscreen 1
makeshift 1
shire 1
widely 1
peoples 1
advise 1
dozen 1
shiest 1
breastfed 1
best-built 1
well-priced 1
high-tech 1
levels 1
plugs 1
usefully 1
flips 1
stack 1
focal 1
picky 1
52x 1
54mps 1
obviously 1
cheep 1
afro-cuban 1
savvy 1
spend 1
abilities 1
amp 1
money-saver 1
squeak-free 1
inactive 1
addresses 1
letting 1
tablet 1
readers 1
alternate 1
drooped 1
exclusively 1
snag 1
signals 1
crying 1
unplayable 1
administrative 1
excited 1
chess 1
dependability 1
vendor 1
emptying 1
emanating 1
enthusiastically 1
matters 1
insert 1
interfaces 1
damage 1
modifying 1
realistically 1
outright 1
sorting 1
lost 1
retake 1
disks 1
head-phones 1
separately 1
pertaining 1
lucien 1
sue 1
creation 1
understood 1
curious 1
facing 1
'diaper 1
well-backlit 1
prop 1
connecting 1
1250 1
wares 1
worship 1
object 1
mass-commercialism 1
850 1
2ghz 1
removablereplaceable 1
tinker 1
negatives 1
br 1
refuses 1
metaphor 1
von 1
shine 1
serviceable 1
pipeline 1
cautious 1
exaggerated 1
deserves 1
bulging 1
shiny 1
addict 1
razor-sharp 1
appropriate 1
smelly 1
troubleshooting 1
sports 1
refrigerator 1
andy 1
bored 1
considerably 1
right-clicking 1
elsewhere 1
registered 1
t-shirt 1
skip 1
repeatedly 1
upright 1
lifesaver 1
user-replaceable 1
detachable 1
ur 1
mobile 1
white-led 1
uk 1
storing 1
30fps 1
associated 1
defined 1
snapping 1
'mini 1
accessibility 1
char 1
duration 1
turnoff 1
evening 1
chat 1
hissing 1
ks 1
lemon 1
endurance 1
thanks 1
backs 1
pails 1
afford 1
aunt 1
drat 1
trouser 1
long-lasting 1
rested 1
antennae 1
lunch 1
reservation 1
lightning 1
sides 1
land 1
4gbs 1
junkie 1
2005 1
fussy 1
requires 1
removeablerechargeable 1
code 1
partial 1
gr 1
scratch 1
secretary 1
-go 1
existing 1
cods 1
gizmo's 1
gold 1
shouldn 1
disposal 1
netscape 1
cradle 1
contours 1
dislike 1
uploaded 1
g6 1
simulcast 1
non-american 1
putting 1
promise 1
mixing 1
continued 1
timely 1
magic 1
tonal 1
transmission 1
positions 1
avoiding 1
relation 1
havent 1
refer 1
noted 1
phillips 1
goodies 1
visuals 1
waking 1
ringers 1
non-hd 1
correspond 1
lower-priced 1
zs 1
video-quality 1
chicago 1
waiting 1
elf 1
focuses 1
led 1
leg 1
straight-forward 1
nimble 1
objects 1
sink 1
invented 1
extreme 1
33 1
32 1
m3u 1
36 1
640 1
principally 1
proof 1
rive 1
named 1
claim 1
duct 1
aps 1
sparklers 1
crazy 1
raul 1
conviction 1
oval 1
masada 1
fee 1
usa 1
kin 1
downfall 1
timing 1
reflects 1
supposedly 1
upcoming 1
becomes 1
impress 1
stone 1
meant 1
folks 1
central 1
900mhz 1
darned 1
portability 1
challenge 1
prompts 1
obvious 1
flimsier 1
drill 1
primitive 1
indestructibility 1
performed 1
coolness 1
tax 1
pieces 1
tab 1
offense 1
bones 1
4-times 1
sit 1
six 1
letterbox 1
pales 1
buildings 1
singular 1
6mb 1
tack 1
preferred 1
recognizes 1
ties 1
toddlers 1
'creative 1
geek 1
realized 1
concern 1
counter 1
lines 1
shutting 1
budge 1
shoulders 1
jeez 1
subsequently 1
iriver 1
beauties 1
theft 1
researching 1
130 1
135 1
knocks 1
converting 1
write 1
system- 1
la 1
lo 1
beater 1
ships 1
li 1
mental 1
coating 1
latitude 1
holiday 1
dad 1
greater 1
surrounds 1
feature-loaded 1
churn 1
mediocre 1
toshiba 1
1024x768 1
kiss 1
transmitter 1
non-regional 1
trimmer 1
edit 1
deciding 1
merge 1
slide 1
fiddle 1
cocoon 1
shaking 1
flair 1
skate 1
fare 1
60-65 1
globe 1
700 1
related 1
image-processing 1
iso100 1
books 1
static 1
remarkably 1
80 1
80gb 1
19gb 1
situational 1
architecture 1
shut 1
strap 1
anyhow 1
distinctive 1
encode 1
top-of-the-line 1
steal 1
paraphernalia 1
user-interfaces 1
length 1
4th 1
stoppage 1
sassier 1
cozmo 1
megapixel4x 1
kilobyte 1
loo 1
-this 1
artefact's 1
telephoto 1
re-entering 1
reached 1
precisely 1
owning 1
dump 1
ordering 1
sim-card 1
unspecified 1
1500 1
mindless 1
rated 1
bosch 1
sensitivity 1
2-3 1
s30 1
slides 1
lil 1
july 1
distinction 1
herself 1
neck 1
popping 1
ss 1
compensation 1
india 1
imho 1
hz 1
helpline 1
reminders 1
atones 1
now-blue 1
feature-rich 1
portrait 1
curved 1
sturdier 1
unarguably 1
3gpp-compatible 1
viewed 1
heft 1
dishes 1
fanatic 1
darkened 1
contact 1
ably 1
instance 1
bus 1
korean 1
dismaydelight 1
accuracy 1
criteria 1
128 1
camper 1
plugging 1
xmas's 1
alts 1
what-so-ever 1
moveable 1
awe 1
cabinet 1
delivery 1
placement 1
enthusiastic 1
sorta 1
typical 1
painting 1
impression 1
efficiency 1
bags- 1
woth 1
planning 1
levitt's 1
definable 1
bedroom 1
12x 1
motorola's 1
decade 1
knowledge 1
manualcenter 1
suckered 1
7-megapixel 1
256mb 1
marriage 1
hope 1
photographs 1
boating 1
seizing 1
words 1
exchanges 1
buyer 1
scrolling 1
megabyte 1
133 1
evolution 1
evident 1
ended 1
conditions 1
subways 1
calling 1
grab 1
btw 1
temporarily 1
farthest 1
exists 1
win98 1
variations 1
configured 1
fantastically 1
transition 1
merits 1
enhanced 1
operated 1
configures 1
closer 1
arguably 1
favor 1
difficulties 1
closed 1
progress 1
frustrated 1
complement 1
one-hand 1
decibels 1
comparable 1
various 1
deliver 1
personalize 1
infants 1
joe 1
key 1
synced 1
approval 1
jukeboxes 1
staring 1
ultra-portable 1
commands 1
jpegs 1
recorders 1
agree 1
fulfilled 1
newbies 1
grain 1
poly-graphic 1
lofty 1
journey 1
comment 1
adjusted 1
form-factor 1
agents 1
hoggingstealing 1
cb 1
cf 1
environments 1
m12 1
mafia 1
ct 1
powered 1
shame 1
immense 1
boundless 1
willa 1
enlarging 1
waste 1
monitor 1
determinant 1
wanna 1
commutes 1
closeup 1
bulk 1
controller 1
ensuring 1
srs-a 1
bull 1
reeves 1
hesitant 1
virtual 1
plastic-like 1
wile 1
vb 1
aw 1
vi 1
surface 1
belt-clip 1
simone 1
sits 1
midas 1
ostentatious 1
loudspeaker 1
began 1
dali 1
highlighted 1
became 1
tabbed 1
largest 1
shuttle 1
cellphones 1
experimented 1
material 1
http 1
annie 1
caters 1
1-3 1
automation 1
ion 1
spitting 1
ad2600 1
expand 1
back-ups 1
panasonic's 1
confronted 1
col 1
s20 1
lenses 1
seeker 1
mp3-player 1
touchy 1
advertises 1
routinely 1
legendary 1
cried 1
flies 1
dvd-rs 1
rocked 1
rapid 1
ads 1
size2 1
tight 1
rebate 1
4- 1
crack 1
ear-piece 1
sonic 1
tests 1
ample 1
fyi 1
first-rate 1
immediately 1
tweak 1
displaced 1
crisp 1
excluding 1
hands-down 1
candy 1
lose 1
alive 1
clydesdale 1
export 1
recommendation 1
liking 1
250 1
transport 1
avoid 1
instantaneous 1
high-light 1
hasn't 1
inaccurate 1
slight 1
expansion 1
stellar 1
ripper 1
includes 1
two-piece 1
sister 1
extension 1
freedom 1
certainty 1
pocketbook 1
location 1
carries 1
swear 1
whistles 1
damp 1
equally 1
sharpness 1
socks 1
s330 1
postal 1
3210 1
additional 1
secret 1
8x10 1
rca 1
motor-driven 1
ambiance 1
3-14 1
slr-like 1
gain 1
convergence 1
paramecia 1
eat 1
count 1
placed 1
converted 1
limit 1
shutter-like 1
marketplace 1
buffs 1
int 1
reservations 1
universal 1
slowing 1
45 1
surreal 1
uni 1
behold 1
clicks 1
kinds 1
astounding 1
bundle 1
makita 1
chance 1
additionally 1
4g 1
panoramas 1
gap 1
smokes 1
philips 1
coat 1
hi-8 1
jewel 1
cpu 1
portion 1
craft 1
surpassed 1
lives 1
pods 1
